…
otype(1:10)
#> [1] "base"
otype(mtcars)
#> [1] "S3"
otype(R6::R6Class()$new())
#> [1] "R6"
```

And for retrieving the methods associated with a generic or class:

``` r
s3_methods_class("factor")
#> # A tibble: 27 x 4
#>    generic       class  visible source
#>    <chr>         <chr>  <lgl>   <chr> 
#>  1 [             factor TRUE    base  
#>  2 [[            factor TRUE    base  
#>  3 [[<-          factor TRUE    base  
#>  4 [<-           factor TRUE    base  
#>  5 all.equal     factor TRUE    base  
#>  6 as.character  factor TRUE    base  
#>  7 as.data.frame factor TRUE    base  
#>  8 as.Date       factor TRUE    base  
#>  9 as.list       factor TRUE    base  
#> 10 as.logical    factor TRUE    base  
#> # … with 17 more rows

s3_methods_generic("summary")
#> # A tibble: 36 x 4
#>    generic class                 visible source             
#>    <chr>   <chr>                 <lgl>   <chr>              
#>  1 summary aov                   TRUE    stats              
#>  2 summary aovlist               FALSE   registered S3method
#>  3 summary aspell                FALSE   registered S3method
#>  4 summary check_packages_in_dir FALSE   registered S3method
#>  5 summary connection            TRUE    base               
#>  6 summary data.frame            TRUE    base               
#>  7 summary Date                  TRUE    base               
#>  8 summary default               TRUE    base               
#>  9 summary ecdf                  FALSE   registered S3method
#> 10 summary factor                TRUE    base               
#> # … with 26 more rows
```
